0:0:0:0:0:0:0:1 - - [15/Jan/2018:12:27:21 +0100] "GET /login HTTP/1.1" 200 1410
0:0:0:0:0:0:0:1 - - [15/Jan/2018:12:27:22 +0100] "GET /css/style.css HTTP/1.1" 200 2199
0:0:0:0:0:0:0:1 - - [15/Jan/2018:12:27:22 +0100] "GET /css/panel.css HTTP/1.1" 200 2555
0:0:0:0:0:0:0:1 - - [15/Jan/2018:12:27:22 +0100] "GET /css/components.css HTTP/1.1" 200 2076
0:0:0:0:0:0:0:1 - - [15/Jan/2018:12:27:22 +0100] "GET /css/bootstrap.css HTTP/1.1" 200 200107
0:0:0:0:0:0:0:1 - - [15/Jan/2018:12:27:23 +0100] "GET /favicon.ico HTTP/1.1" 404 1085
0:0:0:0:0:0:0:1 - - [15/Jan/2018:12:27:31 +0100] "POST /login HTTP/1.1" 302 -
0:0:0:0:0:0:0:1 - - [15/Jan/2018:12:27:31 +0100] "GET /panel HTTP/1.1" 200 1776
0:0:0:0:0:0:0:1 - - [15/Jan/2018:12:58:25 +0100] "GET /login? HTTP/1.1" 200 1410
0:0:0:0:0:0:0:1 - - [15/Jan/2018:12:58:27 +0100] "GET /register HTTP/1.1" 200 1908
0:0:0:0:0:0:0:1 - - [15/Jan/2018:12:58:46 +0100] "POST /register HTTP/1.1" 302 -
0:0:0:0:0:0:0:1 - - [15/Jan/2018:12:58:46 +0100] "GET /login HTTP/1.1" 200 1410
0:0:0:0:0:0:0:1 - - [15/Jan/2018:13:05:39 +0100] "GET /register HTTP/1.1" 200 1908
0:0:0:0:0:0:0:1 - - [15/Jan/2018:13:05:55 +0100] "POST /register HTTP/1.1" 200 1951
0:0:0:0:0:0:0:1 - - [15/Jan/2018:13:22:50 +0100] "GET /register HTTP/1.1" 200 1908
0:0:0:0:0:0:0:1 - - [15/Jan/2018:13:22:56 +0100] "POST /register HTTP/1.1" 200 1951
0:0:0:0:0:0:0:1 - - [15/Jan/2018:13:23:59 +0100] "POST /register HTTP/1.1" 200 1951
0:0:0:0:0:0:0:1 - - [15/Jan/2018:13:24:06 +0100] "POST /register HTTP/1.1" 302 -
0:0:0:0:0:0:0:1 - - [15/Jan/2018:13:24:06 +0100] "GET /login HTTP/1.1" 200 1410
0:0:0:0:0:0:0:1 - - [15/Jan/2018:13:25:53 +0100] "GET /login HTTP/1.1" 200 1410
0:0:0:0:0:0:0:1 - - [15/Jan/2018:13:25:55 +0100] "GET /login HTTP/1.1" 200 1410
0:0:0:0:0:0:0:1 - - [15/Jan/2018:13:25:57 +0100] "GET /register HTTP/1.1" 200 1908
0:0:0:0:0:0:0:1 - - [15/Jan/2018:13:26:06 +0100] "POST /register HTTP/1.1" 200 1981
0:0:0:0:0:0:0:1 - - [15/Jan/2018:13:26:59 +0100] "POST /register HTTP/1.1" 200 1981
0:0:0:0:0:0:0:1 - - [15/Jan/2018:13:28:02 +0100] "POST /register HTTP/1.1" 200 1981
0:0:0:0:0:0:0:1 - - [15/Jan/2018:13:28:13 +0100] "POST /register HTTP/1.1" 200 1981
0:0:0:0:0:0:0:1 - - [15/Jan/2018:13:30:06 +0100] "POST /register HTTP/1.1" 200 1981
0:0:0:0:0:0:0:1 - - [15/Jan/2018:13:30:14 +0100] "POST /register HTTP/1.1" 200 1981
0:0:0:0:0:0:0:1 - - [15/Jan/2018:13:30:20 +0100] "GET /css/bootstrap.min.css.map HTTP/1.1" 404 1103
0:0:0:0:0:0:0:1 - - [15/Jan/2018:13:31:28 +0100] "POST /register HTTP/1.1" 200 1981
0:0:0:0:0:0:0:1 - - [15/Jan/2018:13:31:28 +0100] "GET /css/bootstrap.min.css.map HTTP/1.1" 404 1103
0:0:0:0:0:0:0:1 - - [15/Jan/2018:13:31:32 +0100] "POST /register HTTP/1.1" 200 1981
0:0:0:0:0:0:0:1 - - [15/Jan/2018:13:31:33 +0100] "GET /css/bootstrap.min.css.map HTTP/1.1" 404 1103
0:0:0:0:0:0:0:1 - - [15/Jan/2018:13:32:49 +0100] "POST /register HTTP/1.1" 200 1981
0:0:0:0:0:0:0:1 - - [15/Jan/2018:13:32:51 +0100] "GET /css/bootstrap.min.css.map HTTP/1.1" 404 1103
0:0:0:0:0:0:0:1 - - [15/Jan/2018:13:32:56 +0100] "POST /register HTTP/1.1" 200 1981
0:0:0:0:0:0:0:1 - - [15/Jan/2018:13:32:57 +0100] "GET /css/bootstrap.min.css.map HTTP/1.1" 404 1103
0:0:0:0:0:0:0:1 - - [15/Jan/2018:13:33:01 +0100] "POST /register HTTP/1.1" 200 1981
0:0:0:0:0:0:0:1 - - [15/Jan/2018:13:33:01 +0100] "GET /css/bootstrap.css HTTP/1.1" 200 200107
0:0:0:0:0:0:0:1 - - [15/Jan/2018:13:33:01 +0100] "GET /css/components.css HTTP/1.1" 200 2076
0:0:0:0:0:0:0:1 - - [15/Jan/2018:13:33:01 +0100] "GET /css/style.css HTTP/1.1" 200 2199
0:0:0:0:0:0:0:1 - - [15/Jan/2018:13:33:01 +0100] "GET /css/panel.css HTTP/1.1" 200 2555
0:0:0:0:0:0:0:1 - - [15/Jan/2018:13:33:02 +0100] "GET /css/bootstrap.min.css.map HTTP/1.1" 404 1103
0:0:0:0:0:0:0:1 - - [15/Jan/2018:13:34:34 +0100] "POST /register HTTP/1.1" 200 1982
0:0:0:0:0:0:0:1 - - [15/Jan/2018:13:34:34 +0100] "GET /css/style.css HTTP/1.1" 200 2199
0:0:0:0:0:0:0:1 - - [15/Jan/2018:13:34:34 +0100] "GET /css/bootstrap.css HTTP/1.1" 200 200107
0:0:0:0:0:0:0:1 - - [15/Jan/2018:13:34:34 +0100] "GET /css/components.css HTTP/1.1" 200 2076
0:0:0:0:0:0:0:1 - - [15/Jan/2018:13:34:34 +0100] "GET /css/panel.css HTTP/1.1" 200 2555
0:0:0:0:0:0:0:1 - - [15/Jan/2018:13:34:36 +0100] "GET /css/bootstrap.min.css.map HTTP/1.1" 404 1103
0:0:0:0:0:0:0:1 - - [15/Jan/2018:13:35:37 +0100] "POST /register HTTP/1.1" 200 1982
0:0:0:0:0:0:0:1 - - [15/Jan/2018:13:35:37 +0100] "GET /css/bootstrap.css HTTP/1.1" 200 200107
0:0:0:0:0:0:0:1 - - [15/Jan/2018:13:35:37 +0100] "GET /css/components.css HTTP/1.1" 200 2076
0:0:0:0:0:0:0:1 - - [15/Jan/2018:13:35:37 +0100] "GET /css/style.css HTTP/1.1" 200 2199
0:0:0:0:0:0:0:1 - - [15/Jan/2018:13:35:37 +0100] "GET /css/panel.css HTTP/1.1" 200 2555
0:0:0:0:0:0:0:1 - - [15/Jan/2018:13:35:38 +0100] "GET /css/bootstrap.min.css.map HTTP/1.1" 404 1103
0:0:0:0:0:0:0:1 - - [15/Jan/2018:13:35:41 +0100] "POST /register HTTP/1.1" 200 1982
0:0:0:0:0:0:0:1 - - [15/Jan/2018:13:35:41 +0100] "GET /css/bootstrap.css HTTP/1.1" 200 200107
0:0:0:0:0:0:0:1 - - [15/Jan/2018:13:35:41 +0100] "GET /css/style.css HTTP/1.1" 200 2199
0:0:0:0:0:0:0:1 - - [15/Jan/2018:13:35:41 +0100] "GET /css/components.css HTTP/1.1" 200 2076
0:0:0:0:0:0:0:1 - - [15/Jan/2018:13:35:41 +0100] "GET /css/panel.css HTTP/1.1" 200 2555
0:0:0:0:0:0:0:1 - - [15/Jan/2018:13:35:42 +0100] "GET /css/bootstrap.min.css.map HTTP/1.1" 404 1103
0:0:0:0:0:0:0:1 - - [15/Jan/2018:13:36:59 +0100] "POST /register HTTP/1.1" 200 1991
0:0:0:0:0:0:0:1 - - [15/Jan/2018:13:36:59 +0100] "GET /css/style.css HTTP/1.1" 200 2199
0:0:0:0:0:0:0:1 - - [15/Jan/2018:13:36:59 +0100] "GET /css/bootstrap.css HTTP/1.1" 200 200107
0:0:0:0:0:0:0:1 - - [15/Jan/2018:13:36:59 +0100] "GET /css/panel.css HTTP/1.1" 200 2555
0:0:0:0:0:0:0:1 - - [15/Jan/2018:13:36:59 +0100] "GET /css/components.css HTTP/1.1" 200 2076
0:0:0:0:0:0:0:1 - - [15/Jan/2018:13:37:01 +0100] "GET /css/bootstrap.min.css.map HTTP/1.1" 404 1103
0:0:0:0:0:0:0:1 - - [15/Jan/2018:13:46:23 +0100] "GET /css/bootstrap.min.css.map HTTP/1.1" 404 1103
0:0:0:0:0:0:0:1 - - [15/Jan/2018:13:46:27 +0100] "GET /css/bootstrap.min.css.map HTTP/1.1" 404 1103
0:0:0:0:0:0:0:1 - - [15/Jan/2018:13:46:31 +0100] "GET / HTTP/1.1" 404 1074
0:0:0:0:0:0:0:1 - - [15/Jan/2018:13:46:37 +0100] "GET / HTTP/1.1" 404 1074
0:0:0:0:0:0:0:1 - - [15/Jan/2018:13:46:43 +0100] "GET /css/bootstrap.min.css.map HTTP/1.1" 404 1103
0:0:0:0:0:0:0:1 - - [15/Jan/2018:13:46:48 +0100] "GET /login HTTP/1.1" 200 1410
0:0:0:0:0:0:0:1 - - [15/Jan/2018:13:46:49 +0100] "GET /css/bootstrap.min.css.map HTTP/1.1" 404 1103
0:0:0:0:0:0:0:1 - - [15/Jan/2018:13:46:50 +0100] "GET /register HTTP/1.1" 200 1909
0:0:0:0:0:0:0:1 - - [15/Jan/2018:13:46:52 +0100] "GET /css/bootstrap.min.css.map HTTP/1.1" 404 1103
0:0:0:0:0:0:0:1 - - [15/Jan/2018:13:47:16 +0100] "POST /register HTTP/1.1" 200 -
0:0:0:0:0:0:0:1 - - [15/Jan/2018:14:06:13 +0100] "POST /register HTTP/1.1" 200 -
0:0:0:0:0:0:0:1 - - [15/Jan/2018:14:06:15 +0100] "POST /register HTTP/1.1" 200 -
0:0:0:0:0:0:0:1 - - [15/Jan/2018:14:06:50 +0100] "GET /register HTTP/1.1" 200 1909
0:0:0:0:0:0:0:1 - - [15/Jan/2018:14:06:52 +0100] "GET /css/bootstrap.min.css.map HTTP/1.1" 404 1103
0:0:0:0:0:0:0:1 - - [15/Jan/2018:14:07:13 +0100] "POST /register HTTP/1.1" 200 -
0:0:0:0:0:0:0:1 - - [15/Jan/2018:14:07:59 +0100] "POST /register HTTP/1.1" 200 -
0:0:0:0:0:0:0:1 - - [15/Jan/2018:14:08:02 +0100] "GET /register HTTP/1.1" 200 1909
0:0:0:0:0:0:0:1 - - [15/Jan/2018:14:08:06 +0100] "GET /css/bootstrap.min.css.map HTTP/1.1" 404 1103
0:0:0:0:0:0:0:1 - - [15/Jan/2018:14:08:10 +0100] "POST /register HTTP/1.1" 200 1991
0:0:0:0:0:0:0:1 - - [15/Jan/2018:14:08:12 +0100] "GET /css/bootstrap.min.css.map HTTP/1.1" 404 1103
0:0:0:0:0:0:0:1 - - [15/Jan/2018:14:08:32 +0100] "POST /register HTTP/1.1" 200 -
0:0:0:0:0:0:0:1 - - [15/Jan/2018:14:09:46 +0100] "GET /register HTTP/1.1" 200 1908
0:0:0:0:0:0:0:1 - - [15/Jan/2018:14:09:46 +0100] "GET /register HTTP/1.1" 200 1908
0:0:0:0:0:0:0:1 - - [15/Jan/2018:14:09:46 +0100] "GET /register HTTP/1.1" 200 1908
0:0:0:0:0:0:0:1 - - [15/Jan/2018:14:09:46 +0100] "GET /register HTTP/1.1" 200 1908
0:0:0:0:0:0:0:1 - - [15/Jan/2018:14:09:49 +0100] "GET /css/bootstrap.min.css.map HTTP/1.1" 404 1103
0:0:0:0:0:0:0:1 - - [15/Jan/2018:14:10:02 +0100] "POST /register HTTP/1.1" 302 -
0:0:0:0:0:0:0:1 - - [15/Jan/2018:14:10:02 +0100] "GET /login HTTP/1.1" 200 1410
0:0:0:0:0:0:0:1 - - [15/Jan/2018:14:10:03 +0100] "GET /css/bootstrap.min.css.map HTTP/1.1" 404 1103
0:0:0:0:0:0:0:1 - - [15/Jan/2018:14:36:39 +0100] "GET /login HTTP/1.1" 200 1410
0:0:0:0:0:0:0:1 - - [15/Jan/2018:14:36:41 +0100] "GET /css/bootstrap.min.css.map HTTP/1.1" 404 1103
0:0:0:0:0:0:0:1 - - [15/Jan/2018:14:36:42 +0100] "GET /register HTTP/1.1" 200 1908
0:0:0:0:0:0:0:1 - - [15/Jan/2018:14:36:44 +0100] "GET /css/bootstrap.min.css.map HTTP/1.1" 404 1103
0:0:0:0:0:0:0:1 - - [15/Jan/2018:14:37:02 +0100] "POST /register HTTP/1.1" 302 -
0:0:0:0:0:0:0:1 - - [15/Jan/2018:14:37:02 +0100] "GET /login HTTP/1.1" 200 1410
0:0:0:0:0:0:0:1 - - [15/Jan/2018:14:37:03 +0100] "GET /css/bootstrap.min.css.map HTTP/1.1" 404 1103
0:0:0:0:0:0:0:1 - - [15/Jan/2018:14:43:28 +0100] "GET /login HTTP/1.1" 200 1410
0:0:0:0:0:0:0:1 - - [15/Jan/2018:14:43:29 +0100] "GET /favicon.ico HTTP/1.1" 404 1085
0:0:0:0:0:0:0:1 - - [15/Jan/2018:14:43:31 +0100] "GET /register HTTP/1.1" 200 1908
0:0:0:0:0:0:0:1 - - [15/Jan/2018:14:43:43 +0100] "POST /register HTTP/1.1" 302 -
0:0:0:0:0:0:0:1 - - [15/Jan/2018:14:43:43 +0100] "GET /login HTTP/1.1" 200 1410
0:0:0:0:0:0:0:1 - - [15/Jan/2018:14:43:50 +0100] "POST /login HTTP/1.1" 302 -
0:0:0:0:0:0:0:1 - - [15/Jan/2018:14:43:50 +0100] "GET /login HTTP/1.1" 200 1410
0:0:0:0:0:0:0:1 - - [15/Jan/2018:14:44:42 +0100] "GET /login HTTP/1.1" 200 1410
0:0:0:0:0:0:0:1 - - [15/Jan/2018:14:44:51 +0100] "POST /login HTTP/1.1" 302 -
0:0:0:0:0:0:0:1 - - [15/Jan/2018:14:44:51 +0100] "GET /login HTTP/1.1" 200 1410
0:0:0:0:0:0:0:1 - - [15/Jan/2018:14:45:23 +0100] "GET /login HTTP/1.1" 200 1410
0:0:0:0:0:0:0:1 - - [15/Jan/2018:14:45:27 +0100] "GET /login HTTP/1.1" 200 1410
0:0:0:0:0:0:0:1 - - [15/Jan/2018:14:45:36 +0100] "POST /login HTTP/1.1" 302 -
0:0:0:0:0:0:0:1 - - [15/Jan/2018:14:45:37 +0100] "GET /login HTTP/1.1" 200 1410
0:0:0:0:0:0:0:1 - - [15/Jan/2018:14:47:16 +0100] "GET /login HTTP/1.1" 200 1410
0:0:0:0:0:0:0:1 - - [15/Jan/2018:14:47:28 +0100] "POST /login HTTP/1.1" 302 -
0:0:0:0:0:0:0:1 - - [15/Jan/2018:14:47:28 +0100] "GET /login HTTP/1.1" 200 1410
0:0:0:0:0:0:0:1 - - [15/Jan/2018:14:48:29 +0100] "GET /login HTTP/1.1" 200 1410
0:0:0:0:0:0:0:1 - - [15/Jan/2018:14:48:43 +0100] "POST /login HTTP/1.1" 200 -
